@startuml
:Diretor: as director

rectangle "Módulo – Inteligência de Negócio" {    
    ([RF08] Visualizar gráfico de ocorrências de problemas e horários) as RF08
    ([RF09] Visualizar gráfico de ocorrências de problemas e produtos) as RF09
    ([RF10] Visualizar gráfico de não conformidades e areas) as RF10
    ([RF11] Visualizar gráfico de não conformidades e produtos) as RF11
}

director --> RF08
director --> RF09
director --> RF10
director --> RF11

@enduml